% $ biblatex auxiliary file $
% $ biblatex bbl format version 3.0 $
% Do not modify the above lines!
%
% This is an auxiliary file used by the 'biblatex' package.
% This file may safely be deleted. It will be recreated by
% biber as required.
%
\begingroup
\makeatletter
\@ifundefined{ver@biblatex.sty}
  {\@latex@error
     {Missing 'biblatex' package}
     {The bibliography requires the 'biblatex' package.}
      \aftergroup\endinput}
  {}
\endgroup


\refsection{0}
  \datalist[entry]{nty/global//global/global}
    \entry{wiki:crafting}{misc}{}
      \name{author}{1}{}{%
        {{uniquename=0,uniquepart=base,hash=5d934063e052a578e50c7119343da6be}{%
           family={minecraft-crafting},
           familyi={m\bibinithyphendelim c\bibinitperiod}}}%
      }
      \strng{namehash}{5d934063e052a578e50c7119343da6be}
      \strng{fullhash}{5d934063e052a578e50c7119343da6be}
      \strng{bibnamehash}{5d934063e052a578e50c7119343da6be}
      \strng{authorbibnamehash}{5d934063e052a578e50c7119343da6be}
      \strng{authornamehash}{5d934063e052a578e50c7119343da6be}
      \strng{authorfullhash}{5d934063e052a578e50c7119343da6be}
      \field{sortinit}{m}
      \field{sortinithash}{cfd219b90152c06204fab207bc6c7cab}
      \field{extradatescope}{labelyear}
      \field{labeldatesource}{year}
      \field{labelnamesource}{author}
      \field{labeltitlesource}{title}
      \field{howpublished}{\url{https://www.minecraft-crafting.net/}}
      \field{note}{[Online; accessed 19-March-2019]}
      \field{title}{minecraft crafting}
      \field{year}{2019}
    \endentry
    \entry{wiki:Minecraft}{misc}{}
      \name{author}{1}{}{%
        {{uniquename=0,uniquepart=base,hash=9c677286866aad38f8e9b660f5411814}{%
           family={Wikipedia},
           familyi={W\bibinitperiod}}}%
      }
      \strng{namehash}{9c677286866aad38f8e9b660f5411814}
      \strng{fullhash}{9c677286866aad38f8e9b660f5411814}
      \strng{bibnamehash}{9c677286866aad38f8e9b660f5411814}
      \strng{authorbibnamehash}{9c677286866aad38f8e9b660f5411814}
      \strng{authornamehash}{9c677286866aad38f8e9b660f5411814}
      \strng{authorfullhash}{9c677286866aad38f8e9b660f5411814}
      \field{extraname}{1}
      \field{sortinit}{W}
      \field{sortinithash}{ecb89ff85896a47dc313960773ac311d}
      \field{extradate}{1}
      \field{extradatescope}{labelyear}
      \field{labeldatesource}{year}
      \field{labelnamesource}{author}
      \field{labeltitlesource}{title}
      \field{howpublished}{\url{http://en.wikipedia.org/w/index.php?title=Minecraft&oldid=888427811}}
      \field{note}{[Online; accessed 19-March-2019]}
      \field{title}{{Minecraft} --- {W}ikipedia{,} The Free Encyclopedia}
      \field{year}{2019}
    \endentry
    \entry{wiki:Survival_game}{misc}{}
      \name{author}{1}{}{%
        {{uniquename=0,uniquepart=base,hash=9c677286866aad38f8e9b660f5411814}{%
           family={Wikipedia},
           familyi={W\bibinitperiod}}}%
      }
      \strng{namehash}{9c677286866aad38f8e9b660f5411814}
      \strng{fullhash}{9c677286866aad38f8e9b660f5411814}
      \strng{bibnamehash}{9c677286866aad38f8e9b660f5411814}
      \strng{authorbibnamehash}{9c677286866aad38f8e9b660f5411814}
      \strng{authornamehash}{9c677286866aad38f8e9b660f5411814}
      \strng{authorfullhash}{9c677286866aad38f8e9b660f5411814}
      \field{extraname}{2}
      \field{sortinit}{W}
      \field{sortinithash}{ecb89ff85896a47dc313960773ac311d}
      \field{extradate}{2}
      \field{extradatescope}{labelyear}
      \field{labeldatesource}{year}
      \field{labelnamesource}{author}
      \field{labeltitlesource}{title}
      \field{howpublished}{\url{http://en.wikipedia.org/w/index.php?title=Survival\%20game&oldid=888451679}}
      \field{note}{[Online; accessed 19-March-2019]}
      \field{title}{{Survival game} --- {W}ikipedia{,} The Free Encyclopedia}
      \field{year}{2019}
    \endentry
  \enddatalist
\endrefsection
\endinput

